<?xml version="1.0" encoding="utf-8"?>
<!-- Generator: Adobe Illustrator 23.1.1, SVG Export Plug-In . SVG Version: 6.00 Build 0)  -->
<svg version="1.1" id="Layer_1" xmlns="http://www.w3.org/2000/svg" xmlns:xlink="http://www.w3.org/1999/xlink" x="0px" y="0px"
	 viewBox="0 0 250 250" enable-background="new 0 0 250 250" xml:space="preserve">
<g>
	<g>
		<linearGradient id="SVGID_1_" gradientUnits="userSpaceOnUse" x1="92.5034" y1="176.3296" x2="165.9934" y2="71.3749">
			<stop  offset="4.878050e-03" style="stop-color:#857629"/>
			<stop  offset="0.9902" style="stop-color:#C8B227"/>
		</linearGradient>
		<path fill="url(#SVGID_1_)" d="M155.4,176.7v4.9c0,2.7,2.2,4.9,4.9,4.9h29.2c2.7,0,4.9-2.2,4.9-4.9v-19.5c0-2.7-2.2-4.9-4.9-4.9
			h-6.2c-1.2,0-2.4-0.2-3.5-0.6v-33.4h9.7c2.7,0,4.9-2.2,4.9-4.9V98.8c0-2.7-2.2-4.9-4.9-4.9h-29.2c-2.7,0-4.9,2.2-4.9,4.9v4.9h-13
			l-18.2-13.6c-1.7-1.3-4.1-1.3-5.8,0l-18.2,13.6h-10l1.3-2.7c1.2-2.4,0.2-5.3-2.2-6.5C88.8,94.1,88,94,87.3,94H67.8V79.4
			c0-5.4,4.4-9.7,9.7-9.7h20.3c2.1,5.8,7.6,9.7,13.8,9.7h19.5c8.1,0,14.6-6.5,14.6-14.6s-6.5-14.6-14.6-14.6h-19.5
			c-6.2,0-11.7,3.9-13.8,9.7H77.5c-10.8,0-19.5,8.7-19.5,19.5V94c-1.8,0-3.5,1-4.4,2.7L44,116.1c-1.2,2.4-0.2,5.3,2.2,6.5
			c0.7,0.3,1.4,0.5,2.2,0.5H58v4.9c0,10.8,8.7,19.5,19.5,19.5h29.2c10.8,0,19.5-8.7,19.5-19.5v-2.4l16.2-12.2h13v4.9
			c0,2.7,2.2,4.9,4.9,4.9h9.7v31c-3.1,0-6.1,0.7-8.8,2.1l-3.1,1.6c-1.6,0.8-2.7,2.5-2.7,4.4v4.9h-10.6c-2.1-5.8-7.6-9.7-13.8-9.7
			h-19.5c-8.1,0-14.6,6.5-14.6,14.6c0,8.1,6.5,14.6,14.6,14.6h19.5c6.2,0,11.7-3.9,13.8-9.7H155.4z M111.6,59.9h19.5
			c2.7,0,4.9,2.2,4.9,4.9s-2.2,4.9-4.9,4.9h-19.5c-2.7,0-4.9-2.2-4.9-4.9S108.9,59.9,111.6,59.9z M61.1,103.7h18.3l-4.9,9.7H56.2
			L61.1,103.7z M106.7,137.8H77.5c-5.4,0-9.7-4.4-9.7-9.7v-4.9h9.7c1.8,0,3.5-1,4.4-2.7l3.5-7h14.8l16.2,12.2v2.4
			C116.5,133.4,112.1,137.8,106.7,137.8z M121.3,117.1l-11.4-8.5l11.4-8.5l11.4,8.5L121.3,117.1z M165.2,103.7h19.5v9.7h-19.5V103.7
			z M165.2,165.1l0.4-0.2c2.8-1.4,6.1-1.4,8.9,0c2.7,1.4,5.7,2.1,8.8,2.1h1.4v9.7h-19.5V165.1z M131.1,176.7h-19.5
			c-2.7,0-4.9-2.2-4.9-4.9s2.2-4.9,4.9-4.9h19.5c2.7,0,4.9,2.2,4.9,4.9S133.8,176.7,131.1,176.7z"/>
	</g>
	<g>
		<g>
			<linearGradient id="SVGID_2_" gradientUnits="userSpaceOnUse" x1="54.7203" y1="226.6519" x2="197.2607" y2="23.0831">
				<stop  offset="4.878050e-03" style="stop-color:#857629"/>
				<stop  offset="0.9902" style="stop-color:#C8B227"/>
			</linearGradient>
			<path fill="url(#SVGID_2_)" d="M237.3,133.8c0.1-0.8,0.1-1.5,0.2-2.2c0.1-1.9,0.1-3.6,0.2-4.7c0-1.1,0-1.8,0-1.8s0-0.6,0-1.8
				c0-1.1,0-2.8-0.1-4.7c0-0.7-0.1-1.4-0.2-2.2c1.2-0.8,2.6-1.8,4-2.8c3.9-2.8,7.7-6,7.7-6s-0.1-0.7-0.2-1.7c-0.2-1-0.4-2.4-0.7-3.7
				c-0.2-1.3-0.5-2.7-0.7-3.7c-0.2-1-0.4-1.7-0.4-1.7s-1.2-0.4-2.9-1c-1.7-0.6-4.1-1.3-6.4-1.9c-1.6-0.4-3.3-0.8-4.7-1.2
				c-0.2-0.7-0.4-1.4-0.7-2.1c-0.6-1.8-1.1-3.4-1.5-4.4c-0.4-1.1-0.7-1.7-0.7-1.7s-0.2-0.6-0.7-1.7c-0.4-1.1-1.1-2.5-1.9-4.3
				c-0.3-0.6-0.6-1.3-0.9-2c0.8-1.2,1.8-2.6,2.7-4c1.3-2,2.6-4.1,3.5-5.7c0.9-1.6,1.5-2.7,1.5-2.7s-0.3-0.6-0.8-1.5
				c-0.5-0.9-1.2-2.1-1.9-3.2c-0.7-1.2-1.5-2.3-2-3.2c-0.5-0.9-0.9-1.4-0.9-1.4s-5,0.2-9.7,0.7c-1.7,0.2-3.4,0.4-4.8,0.6
				c-0.5-0.6-0.9-1.2-1.4-1.7c-2.5-3-4.2-4.9-4.2-4.9s-0.4-0.5-1.2-1.3c-0.8-0.8-1.9-2-3.3-3.4c-0.5-0.5-1-1-1.6-1.5
				c0.4-1.4,0.7-3.1,1.1-4.8c1-4.7,1.6-9.6,1.6-9.6s-0.5-0.4-1.3-1.1c-0.8-0.6-1.9-1.5-3-2.3c-1.1-0.8-2.2-1.6-3-2.2
				c-0.8-0.6-1.4-1-1.4-1s-1.1,0.5-2.8,1.2c-1.7,0.8-3.9,1.8-6,2.9c-1.1,0.5-2.1,1.1-3.1,1.6c-0.4,0.2-0.8,0.4-1.2,0.7
				c-0.7-0.4-1.3-0.8-1.9-1.1c-0.8-0.5-1.6-0.9-2.3-1.3c-0.7-0.4-1.3-0.7-1.8-0.9c-1-0.5-1.6-0.8-1.6-0.8s-0.6-0.3-1.6-0.8
				c-1-0.5-2.5-1.1-4.3-1.9c-0.6-0.3-1.3-0.5-2-0.8c-0.2-1.5-0.4-3.1-0.7-4.8c-0.4-2.4-0.9-4.8-1.3-6.6c-0.4-1.8-0.7-3-0.7-3
				s-0.6-0.2-1.6-0.5c-1-0.3-2.3-0.7-3.6-1.1c-1.3-0.4-2.6-0.8-3.6-1c-1-0.2-1.7-0.4-1.7-0.4s-0.9,0.9-2.2,2.2c-1.3,1.3-3,3-4.6,4.9
				c-1.1,1.3-2.2,2.6-3.2,3.7c-0.8-0.1-1.5-0.3-2.2-0.4c-1.9-0.2-3.5-0.5-4.7-0.6c-0.6-0.1-1-0.1-1.3-0.1c-0.3,0-0.5,0-0.5,0
				s-0.6,0-1.8-0.1c-1.1-0.1-2.7-0.3-4.7-0.3c-0.7,0-1.4,0-2.2-0.1c-0.7-1.3-1.5-2.8-2.4-4.2c-2.5-4.1-5.3-8.2-5.3-8.2s-0.2,0-0.5,0
				c-0.3,0-0.7,0.1-1.2,0.1c-1,0.1-2.4,0.2-3.7,0.3c-1.4,0.1-2.7,0.3-3.7,0.4c-1,0.1-1.7,0.2-1.7,0.2s-0.5,1.1-1.3,2.8
				c-0.7,1.7-1.6,4-2.5,6.2c-0.6,1.6-1.2,3.2-1.6,4.6c-0.7,0.1-1.5,0.3-2.1,0.5c-1.9,0.5-3.5,0.8-4.6,1.1c-1.1,0.3-1.7,0.5-1.7,0.5
				s-0.6,0.2-1.7,0.5c-1.1,0.3-2.6,0.8-4.5,1.5c-0.7,0.2-1.4,0.5-2.1,0.7c-1.1-0.9-2.4-2-3.8-3c-1.9-1.5-3.9-3-5.4-4
				c-1.5-1-2.5-1.7-2.5-1.7s-0.6,0.3-1.6,0.7c-0.9,0.4-2.2,1-3.4,1.6c-1.2,0.6-2.4,1.2-3.3,1.7c-0.5,0.2-0.8,0.4-1.1,0.6
				c-0.3,0.1-0.4,0.2-0.4,0.2s-0.3,4.9-0.2,9.7c0,1.7,0.1,3.4,0.2,4.9c-0.6,0.4-1.3,0.8-1.8,1.2c-1.6,1.1-2.9,2-3.8,2.7
				c-0.9,0.6-1.4,1.1-1.4,1.1s-0.5,0.4-1.4,1.1c-0.9,0.7-2.2,1.7-3.6,3c-0.5,0.5-1.1,0.9-1.7,1.4c-1.4-0.5-3-1-4.6-1.5
				c-2.3-0.7-4.7-1.3-6.4-1.8c-1.8-0.5-3-0.7-3-0.7s-1.9,2-3.8,3.9C31.8,43,30,45.1,30,45.1s0.4,1.2,1,2.9c0.6,1.7,1.5,4,2.3,6.3
				c0.6,1.6,1.3,3.1,1.9,4.5c-0.4,0.6-0.9,1.2-1.3,1.8c-1.2,1.6-2,2.9-2.6,3.9c-0.6,1-1,1.5-1,1.5s-0.1,0.1-0.3,0.4
				c-0.2,0.3-0.4,0.6-0.7,1.1c-0.6,1-1.4,2.4-2.3,4.1c-0.3,0.6-0.7,1.3-1,2c-1.5,0.1-3.2,0.1-4.9,0.3c-2.4,0.2-4.8,0.5-6.6,0.7
				c-1.8,0.3-3,0.4-3,0.4s-0.3,0.6-0.7,1.6c-0.4,1-0.9,2.2-1.4,3.5c-0.5,1.3-1,2.5-1.3,3.5c-0.3,1-0.6,1.6-0.6,1.6s0.8,0.9,1.9,2.4
				c1.2,1.4,2.8,3.2,4.5,5c1.2,1.2,2.3,2.4,3.4,3.5c-0.2,0.7-0.4,1.5-0.5,2.1c-0.4,1.9-0.8,3.5-1,4.6c-0.2,1.1-0.3,1.8-0.3,1.8
				s-0.1,0.6-0.3,1.8c-0.1,0.6-0.2,1.2-0.3,2c-0.1,0.8-0.2,1.7-0.3,2.6c-0.1,0.7-0.2,1.4-0.3,2.2c-0.4,0.2-0.8,0.3-1.2,0.5
				c-1,0.5-2.1,1-3.2,1.5c-2.2,1-4.3,2.2-6,3c-0.8,0.4-1.5,0.8-1.9,1.1c-0.5,0.3-0.7,0.4-0.7,0.4s-0.1,2.7-0.1,5.5
				c0.1,2.7,0.1,5.5,0.1,5.5s0.3,0.2,0.7,0.4c0.5,0.3,1.1,0.6,1.9,1.1c1.6,0.9,3.8,2,6,3.1c1.1,0.5,2.2,1,3.2,1.5
				c0.4,0.2,0.8,0.4,1.2,0.5c0.1,0.8,0.2,1.5,0.3,2.2c0.1,1,0.2,1.8,0.3,2.6c0.1,0.8,0.3,1.5,0.3,2c0.2,1.1,0.3,1.8,0.3,1.8
				s0.1,0.6,0.3,1.8c0.2,1.1,0.6,2.7,1,4.6c0.1,0.7,0.3,1.4,0.5,2.1c-1,1-2.2,2.2-3.4,3.5c-1.7,1.8-3.3,3.6-4.5,5
				c-1.2,1.4-2,2.4-2,2.4s0.2,0.6,0.5,1.6c0.3,1,0.8,2.3,1.3,3.5c0.5,1.3,1,2.5,1.4,3.5c0.4,0.9,0.7,1.6,0.7,1.6s1.2,0.2,3,0.4
				c1.8,0.2,4.2,0.5,6.6,0.7c1.7,0.1,3.4,0.2,4.9,0.3c0.3,0.7,0.7,1.3,1,2c1,1.7,1.8,3.1,2.3,4.1c0.3,0.5,0.5,0.9,0.7,1.1
				c0.2,0.3,0.3,0.4,0.3,0.4s0.3,0.5,1,1.5c0.6,1,1.5,2.3,2.6,3.9c0.4,0.6,0.8,1.2,1.3,1.8c-0.6,1.4-1.3,2.9-1.9,4.5
				c-0.9,2.2-1.7,4.5-2.4,6.3c-0.6,1.8-1,2.9-1,2.9s1.8,2.1,3.6,4.1c1.9,2,3.8,4,3.8,4s1.2-0.3,3-0.7c1.8-0.4,4.2-1.1,6.5-1.8
				c1.6-0.5,3.2-1,4.6-1.5c0.6,0.5,1.1,1,1.7,1.4c1.4,1.3,2.8,2.3,3.6,3c0.9,0.7,1.4,1.1,1.4,1.1s0.5,0.4,1.4,1.1
				c0.9,0.6,2.2,1.6,3.8,2.7c0.6,0.4,1.2,0.8,1.8,1.2c-0.1,1.5-0.2,3.2-0.2,4.9c-0.1,4.8,0.2,9.7,0.2,9.7s0.1,0.1,0.4,0.2
				c0.3,0.1,0.6,0.4,1.1,0.6c0.9,0.5,2.1,1.1,3.3,1.7c1.2,0.6,2.5,1.2,3.4,1.6c0.9,0.4,1.6,0.7,1.6,0.7s1-0.7,2.5-1.7
				c1.5-1,3.5-2.5,5.4-4c1.4-1.1,2.6-2.1,3.8-3c0.7,0.3,1.4,0.5,2.1,0.7c1.8,0.6,3.4,1.2,4.5,1.5c1.1,0.3,1.7,0.5,1.7,0.5
				s0.6,0.2,1.7,0.5c1.1,0.3,2.7,0.7,4.6,1.1c0.7,0.2,1.4,0.3,2.1,0.5c0.5,1.4,1,3,1.6,4.6c0.8,2.3,1.8,4.6,2.5,6.2
				c0.7,1.7,1.2,2.8,1.2,2.8s0.7,0.1,1.7,0.2c1,0.1,2.4,0.3,3.7,0.4c1.4,0.1,2.7,0.2,3.7,0.3c0.5,0,0.9,0.1,1.2,0.1
				c0.3,0,0.5,0,0.5,0s2.9-4.1,5.3-8.2c0.9-1.4,1.7-2.9,2.4-4.2c0.8,0,1.5,0,2.2-0.1c1.9,0,3.6-0.2,4.7-0.3c1.1-0.1,1.8-0.1,1.8-0.1
				s0.2,0,0.5,0c0.3,0,0.7-0.1,1.3-0.1c1.1-0.1,2.7-0.3,4.7-0.6c0.7-0.1,1.4-0.2,2.2-0.4c0.9,1.1,2,2.4,3.1,3.7
				c1.6,1.9,3.3,3.6,4.5,4.9c1.3,1.3,2.2,2.2,2.2,2.2s0.7-0.2,1.7-0.4c1-0.2,2.3-0.6,3.6-1c1.3-0.4,2.6-0.7,3.6-1.1
				c1-0.3,1.6-0.5,1.6-0.5s0.3-1.2,0.7-3c0.4-1.8,0.9-4.1,1.3-6.6c0.3-1.7,0.5-3.3,0.7-4.8c0.7-0.3,1.4-0.6,2-0.8
				c1.8-0.8,3.2-1.5,4.3-1.9c1-0.5,1.6-0.8,1.6-0.8s0.6-0.3,1.6-0.8c0.5-0.3,1.1-0.6,1.8-0.9c0.7-0.4,1.5-0.8,2.3-1.3
				c0.6-0.3,1.3-0.7,1.9-1.1c0.4,0.2,0.8,0.4,1.2,0.7c1,0.5,2,1.1,3.1,1.6c2.1,1.1,4.3,2.2,6,2.9c1.7,0.8,2.8,1.2,2.8,1.2
				s0.6-0.4,1.4-1c0.8-0.6,2-1.4,3-2.2c1.1-0.8,2.1-1.7,3-2.3c0.8-0.6,1.3-1.1,1.3-1.1s-0.6-4.9-1.6-9.6c-0.3-1.7-0.7-3.3-1.1-4.8
				c0.6-0.5,1.1-1,1.6-1.5c1.4-1.3,2.5-2.5,3.3-3.3c0.8-0.8,1.2-1.3,1.2-1.3s1.7-1.9,4.2-4.9c0.4-0.5,0.9-1.1,1.4-1.7
				c1.5,0.2,3.1,0.4,4.8,0.6c4.8,0.5,9.7,0.7,9.7,0.7s0.4-0.6,0.9-1.4c0.6-0.9,1.3-2,2-3.2c0.8-1.1,1.4-2.3,1.9-3.2
				c0.5-0.9,0.9-1.5,0.9-1.5s-0.6-1.1-1.5-2.7c-0.9-1.6-2.2-3.7-3.5-5.7c-0.9-1.4-1.8-2.8-2.7-4c0.3-0.7,0.6-1.4,0.9-2
				c0.8-1.8,1.5-3.2,1.9-4.3c0.4-1.1,0.7-1.7,0.7-1.7s0.2-0.6,0.7-1.7c0.4-1.1,0.9-2.6,1.5-4.4c0.2-0.7,0.4-1.4,0.7-2.1
				c1.4-0.3,3.1-0.7,4.7-1.2c2.3-0.6,4.7-1.3,6.4-1.9c1.7-0.6,2.9-1,2.9-1s0.2-0.7,0.4-1.7c0.3-1,0.5-2.3,0.7-3.7
				c0.2-1.3,0.5-2.7,0.7-3.7c0.1-1,0.2-1.7,0.2-1.7s-3.8-3.2-7.6-6C239.9,135.6,238.5,134.6,237.3,133.8z M213.6,160.8
				c-0.3,0.9-0.9,2.1-1.6,3.6c-1.3,3-3.4,6.9-5.7,10.6c-0.6,0.9-1.2,1.8-1.8,2.8c-0.6,0.9-1.2,1.7-1.8,2.6c-1.2,1.7-2.4,3.2-3.4,4.5
				c-2.1,2.5-3.6,4.2-3.6,4.2s-0.4,0.4-1,1.1c-0.7,0.7-1.6,1.7-2.8,2.8c-1.2,1.1-2.6,2.5-4.1,3.8c-1.5,1.4-3.3,2.7-5,4.1
				c-3.5,2.6-7.2,5.1-10.1,6.6c-0.7,0.4-1.4,0.8-1.9,1.1c-0.6,0.3-1.1,0.6-1.5,0.8c-0.9,0.4-1.3,0.7-1.3,0.7s-0.5,0.3-1.3,0.7
				c-0.9,0.4-2.1,1-3.6,1.6c-1.5,0.6-3.3,1.3-5.2,2c-1.9,0.6-4,1.4-6.1,1.9c-2.1,0.6-4.2,1.1-6.2,1.6c-2,0.4-3.9,0.7-5.5,1
				c-1.6,0.2-3,0.4-3.9,0.5c-0.5,0.1-0.9,0.1-1.1,0.1c-0.3,0-0.4,0-0.4,0s-0.5,0-1.5,0.1c-1,0.1-2.3,0.2-4,0.2c-1.6,0-3.6,0.1-5.6,0
				c-1,0-2.1,0-3.2-0.1c-1.1-0.1-2.2-0.2-3.3-0.3c-1.1-0.1-2.2-0.2-3.3-0.4c-1.1-0.2-2.1-0.2-3.1-0.4c-2-0.4-3.9-0.6-5.5-1.1
				c-1.6-0.4-2.9-0.6-3.9-0.9c-0.9-0.3-1.4-0.4-1.4-0.4s-0.5-0.1-1.4-0.4c-0.9-0.2-2.2-0.7-3.8-1.2c-1.6-0.5-3.3-1.3-5.2-2
				c-1-0.4-1.9-0.9-2.9-1.3c-1-0.4-2-0.9-3-1.4c-1-0.5-2-1-2.9-1.5c-0.9-0.5-1.9-1.1-2.7-1.6c-0.4-0.3-0.9-0.5-1.3-0.8
				c-0.4-0.3-0.8-0.5-1.2-0.8c-0.8-0.5-1.5-1-2.2-1.4c-1.4-0.9-2.5-1.7-3.2-2.3c-0.8-0.5-1.2-0.9-1.2-0.9s-0.4-0.3-1.2-0.9
				c-0.7-0.6-1.9-1.4-3.1-2.5c-0.6-0.5-1.3-1.1-2-1.7c-0.7-0.6-1.4-1.3-2.2-2c-1.5-1.4-3-3-4.5-4.6c-0.7-0.8-1.4-1.7-2.1-2.5
				c-0.7-0.8-1.4-1.6-2-2.5c-0.6-0.8-1.2-1.6-1.8-2.3c-0.5-0.8-1.1-1.5-1.5-2.2c-1-1.3-1.7-2.5-2.2-3.3c-0.5-0.8-0.8-1.3-0.8-1.3
				s-0.1-0.1-0.2-0.3c-0.1-0.2-0.3-0.5-0.6-1c-0.5-0.8-1.2-2-2-3.4c-1.5-2.9-3.5-6.8-5-10.9l-0.6-1.5c-0.2-0.5-0.3-1-0.5-1.5
				c-0.3-1-0.7-2-1-3c-0.5-2-1.1-3.8-1.5-5.4c-0.4-1.6-0.7-2.9-0.9-3.9c-0.2-0.9-0.3-1.5-0.3-1.5s-0.1-0.5-0.3-1.5
				c-0.1-0.5-0.2-1-0.3-1.7c-0.1-0.7-0.2-1.4-0.3-2.2c-0.5-3.3-0.7-7.7-0.8-12c0.1-4.4,0.3-8.8,0.8-12c0.1-0.8,0.2-1.6,0.3-2.2
				c0.1-0.7,0.2-1.2,0.3-1.7c0.2-0.9,0.3-1.5,0.3-1.5s0.1-0.5,0.3-1.5c0.2-0.9,0.5-2.3,0.9-3.9c0.4-1.6,1-3.4,1.5-5.4
				c0.3-1,0.7-2,1-3c0.2-0.5,0.3-1,0.5-1.5l0.6-1.5c1.5-4.1,3.5-8,5-10.9c0.8-1.4,1.5-2.6,2-3.4c0.2-0.4,0.4-0.7,0.6-1
				c0.1-0.2,0.2-0.3,0.2-0.3s0.3-0.5,0.8-1.3c0.5-0.8,1.2-2,2.2-3.3c0.5-0.7,1-1.4,1.5-2.2c0.6-0.7,1.2-1.5,1.8-2.3
				c0.6-0.8,1.3-1.6,2-2.4c0.7-0.8,1.4-1.6,2.2-2.5c1.5-1.6,3-3.2,4.5-4.6c0.8-0.7,1.4-1.4,2.2-2c0.7-0.6,1.4-1.2,2-1.7
				c1.2-1.1,2.3-1.9,3.1-2.5c0.8-0.6,1.2-0.9,1.2-0.9s0.4-0.3,1.2-0.9c0.8-0.5,1.9-1.4,3.3-2.3c0.7-0.4,1.4-0.9,2.2-1.4
				c0.4-0.3,0.8-0.5,1.2-0.8c0.4-0.2,0.9-0.5,1.3-0.8c0.9-0.5,1.8-1,2.7-1.6c1-0.5,1.9-1,2.9-1.5c1-0.5,2-1,3-1.4
				c1-0.4,1.9-0.9,2.9-1.3c1.9-0.7,3.7-1.5,5.3-2c1.6-0.5,2.8-1,3.8-1.2c0.9-0.3,1.4-0.4,1.4-0.4s0.5-0.1,1.4-0.4
				c0.9-0.3,2.3-0.5,3.9-0.9c1.6-0.4,3.5-0.7,5.5-1.1c1-0.2,2.1-0.3,3.1-0.4c1.1-0.1,2.2-0.3,3.3-0.4c1.1-0.1,2.2-0.2,3.3-0.2
				c1.1-0.1,2.1-0.1,3.2-0.1c2.1-0.1,4,0,5.6,0c1.7,0,3,0.2,4,0.2c1,0.1,1.5,0.1,1.5,0.1s0.1,0,0.4,0c0.3,0,0.6,0,1.1,0.1
				c1,0.1,2.3,0.3,3.9,0.5c1.6,0.3,3.5,0.6,5.5,1c2,0.5,4.1,0.9,6.2,1.6c2.1,0.5,4.2,1.3,6.1,2c1.9,0.7,3.7,1.4,5.2,2.1
				c1.5,0.7,2.7,1.2,3.6,1.6c0.9,0.4,1.3,0.7,1.3,0.7s0.5,0.3,1.3,0.7c0.4,0.2,0.9,0.5,1.5,0.8c0.6,0.3,1.2,0.7,1.9,1.1
				c2.9,1.6,6.5,4,10.1,6.6c1.7,1.4,3.5,2.7,5,4.1c1.6,1.3,2.9,2.7,4.1,3.8c1.2,1.1,2.1,2.2,2.8,2.8c0.7,0.7,1,1.1,1,1.1
				s1.5,1.6,3.6,4.2c1,1.3,2.3,2.8,3.4,4.5c0.6,0.8,1.2,1.7,1.8,2.6c0.6,0.9,1.2,1.8,1.8,2.8c2.3,3.7,4.4,7.6,5.7,10.6
				c0.7,1.5,1.2,2.7,1.6,3.6c0.4,0.9,0.6,1.4,0.6,1.4s0.2,0.5,0.6,1.4c0.3,0.9,0.7,2.2,1.3,3.8c0.5,1.6,1,3.4,1.6,5.4
				c0.2,1,0.5,2,0.7,3.1c0.1,0.5,0.2,1.1,0.4,1.6l0.3,1.6c0.9,4.3,1.2,8.7,1.4,12c0.1,1.6,0.1,3,0.1,4c0,1,0,1.5,0,1.5s0,0.5,0,1.5
				c0,1,0,2.3-0.1,4c-0.2,3.3-0.6,7.7-1.5,12l-0.3,1.6c-0.1,0.5-0.2,1.1-0.4,1.6c-0.2,1.1-0.5,2.1-0.7,3.1c-0.6,2-1,3.8-1.6,5.4
				c-0.5,1.6-1,2.9-1.3,3.8c-0.4,0.9-0.6,1.4-0.6,1.4S213.9,159.9,213.6,160.8z"/>
		</g>
	</g>
</g>
</svg>
